<?xml version="1.0" encoding="UTF-8"?>
<svg width="194px" height="24px" viewBox="0 0 194 24" version="1.1" xmlns="http://www.w3.org/2000/svg" xmlns:xlink="http://www.w3.org/1999/xlink">
    <title>read-more-arrow</title>
    <g id="Page-1" stroke="none" stroke-width="1" fill="none" fill-rule="evenodd">
        <g id="read-more-arrow" transform="translate(0.000000, 2.000000)" stroke="#CB7375">
            <polyline id="Path" points="0.2851563 10.071167 183.019449 10.071167 183.019449 0.071167 193.084778 10.071167 183.019449 20.071167 183.019449 15.1121332"></polyline>
        </g>
    </g>
</svg>